…
- select colors from `ggsci` package presets

``` r
sci_colors("npg", 5) %>% plot_colors()
```

<img src="man/figures/README-color-sci_colors-1.png" width="100%" />

- assign colors by a column in a tibble, for the convenience to use
  `scale_color_identity()`

``` r
assign_colors(mini_diamond, cut, colors = sci_colors("nejm", 8))
#> # A tibble: 100 × 8
#>    id    carat cut   clarity price     x     y assigned_colors
#>    <chr> <dbl> <chr> <chr>   <int> <dbl> <dbl> <chr>          
#>  1 id-1   1.02 Fair  SI1      3027  6.25  6.18 #BC3C29FF      
#>  2 id-2   1.51 Good  VS2     11746  7.27  7.18 #0072B5FF      
#>  3 id-3   0.52 Ideal VVS1     2029  5.15  5.18 #E18727FF      
#>  4 id-4   1.54 Ideal SI2      9452  7.43  7.45 #E18727FF      
#>  5 id-5   0.72 Ideal VS1      2498  5.73  5.77 #E18727FF      
#>  6 id-6   2.02 Fair  SI2     14080  8.33  8.37 #BC3C29FF      
#>  7 id-7   0.27 Good  VVS1      752  4.1   4.07 #0072B5FF      
#>  8 id-8   0.51 Good  SI2      1029  5.05  5.08 #0072B5FF      
#>  9 id-9   1.01 Ideal SI1      5590  6.43  6.4  #E18727FF      
#> 10 id-10  0.7  Fair  VVS1     1691  5.56  5.41 #BC3C29FF      
#> # … with 90 more rows
```
…
